0,0
1,3
2,5
3,7
4,9
5,12
6,14
7,16
8,18
9,20
10,23
11,25
12,27
13,29
14,31
15,34
16,36
17,38
18,40
19,42
20,44
21,45
22,46
23,47
24,48
25,49
26,50
27,51
28,52
29,53
30,54
31,55
32,56
33,57
34,58
35,59
36,60
37,61
38,62
39,63
40,64
41,65
42,66
43,67
44,68
45,69
46,70
47,71
48,72
49,74
50,76
51,78
52,80
53,82
54,84
55,86
56,88
57,90
58,92
59,94
60,96
61,98
62,100
