1,1,0.33,0.66
2,1,0.33,0.66
3,1,0.33,0.66
4,1,0.33,0.66
5,2,0.33,0.66
6,2,0.33,0.66
7,2,0.33,0.66
8,1,0.33,0.66
9,1,0.33,0.66
10,1,0.33,0.66
11,2,0.33,0.66
12,2,0.33,0.66
13,1,0.33,0.66
14,1,0.33,0.66
15,1,0.33,0.66
16,2,0.33,0.66
17,2,0.33,0.66
18,2,0.33,0.66
19,1,0.33,0.66
20,1,0.33,0.66
21,2,0.33,0.66
22,1,0.33,0.66
23,1,0.33,0.66
24,1,0.33,0.66
25,1,0.33,0.66
26,1,0.33,0.66
27,3,0.33,0.66
28,3,0.33,0.66
29,3,0.33,0.66
30,3,0.33,0.66
31,3,0.33,0.66
