0,0
1,3
2,6
3,9
4,12
5,14
6,17
7,20
8,23
9,25
10,28
11,31
12,34
13,36
14,38
15,39
16,40
17,41
18,42
19,43
20,44
21,45
22,46
23,47
24,49
25,50
26,51
27,52
28,53
29,54
30,55
31,56
32,57
33,58
34,60
35,61
36,62
37,63
38,64
39,65
40,66
41,67
42,68
43,69
44,71
45,72
46,73
47,74
48,75
49,76
50,77
51,78
52,79
53,80
54,83
55,86
56,89
57,92
58,95
59,98
60,100
