1,1,0.33,0.66
2,1,0.33,0.66
3,1,0.33,0.66
4,1,0.33,0.66
5,1,0.33,0.66
6,1,0.33,0.66
7,1,0.33,0.66
8,1,0.33,0.66
9,2,0.33,0.66
10,2,0.33,0.66
11,2,0.33,0.66
12,1,0.33,0.66
13,1,0.33,0.66
14,1,0.33,0.66
15,1,0.33,0.66
16,1,0.33,0.66
17,2,0.33,0.66
18,2,0.33,0.66
19,2,0.33,0.66
20,1,0.33,0.66
21,1,0.33,0.66
22,2,0.33,0.66
23,2,0.33,0.66
24,2,0.33,0.66
25,2,0.33,0.66
26,2,0.33,0.66
27,1,0.33,0.66
28,1,0.33,0.66
29,1,0.33,0.66
30,3,0.33,0.66
31,4,0.33,0.66
32,5,0.33,0.66
33,4,0.33,0.66
34,4,0.33,0.66
