1,1,0.33,0.66
2,2,0.33,0.66
3,2,0.33,0.66
4,1,0.33,0.66
5,2,0.33,0.66
6,2,0.33,0.66
7,2,0.33,0.66
8,2,0.33,0.66
9,2,0.33,0.66
10,1,0.33,0.66
11,3,0.33,0.66
12,2,0.33,0.66
13,1,0.33,0.66
14,1,0.33,0.66
15,1,0.33,0.66
16,2,0.33,0.66
17,2,0.33,0.66
18,1,0.33,0.66
19,1,0.33,0.66
20,2,0.33,0.66
21,2,0.33,0.66
22,2,0.33,0.66
23,3,0.33,0.66
24,4,0.33,0.66
25,11,0.33,0.66
